{
    "/js/app.js": "/js/app.js",
    "/css/app.css": "/css/app.css",
    "/panel/js/autocomplete.js": "/panel/js/autocomplete.js",
    "/panel/js/calendar.js": "/panel/js/calendar.js",
    "/panel/js/cotizacion.js": "/panel/js/cotizacion.js",
    "/panel/js/main.js": "/panel/js/main.js",
    "/panel/js/svgdot.js": "/panel/js/svgdot.js",
    "/panel/css/main.css": "/panel/css/main.css"
}
